AfDB Awarded Contracts – STA 9750 Submission Material
…
high_value_noncomp <- df %>%
  filter(proc_mode %in% low_comp_modes) %>%
  arrange(desc(spend_usd)) %>%
  select(
    year, project_country, sector, expense_category, proc_mode,
    bidder_name, bidder_nationality,
    project_def, loan_number, tender_num, contr_no,
    spend_usd
  ) %>%
  slice_head(n = 50)

high_value_noncomp

# A tibble: 50 × 12
    year project_country sector          expense_category proc_mode bidder_name 
   <int> <chr>           <chr>           <chr>            <chr>     <chr>       
 1  2024 Cameroon        Transport       WORKS            DNP       SINOHYDRO C…
 2  2024 Tunisia         Agriculture     GOODS            SHL       GROUPE CHIM…
 3  2022 Cameroon        Transport       WORKS            DNP       Sinohydro C…
 4  2024 Namibia         Water Sup/Sanit WORKS            DNP       China Harbo…
 5  2022 Multi-Countries Transport       WORKS            SHL       China Henan…
 6  2020 Senegal         Transport       WORKS            SHL       CHINA RAILW…
 7  2024 Senegal         Transport       WORKS            SHL       LA SOCIETE …
 8  2022 Cameroon        Transport       WORKS            DNP       Sinohydro C…
 9  2022 South Africa    Power           WORKS            DNP       Amulet Grou…
10  2022 Congo CG        Communications  WORKS            SHL       CONSORTIUM …
# ℹ 40 more rows
# ℹ 6 more variables: bidder_nationality <chr>, project_def <chr>,
#   loan_number <chr>, tender_num <chr>, contr_no <chr>, spend_usd <dbl>
…
dom_country <- df %>%
  group_by(project_country) %>%
  summarise(
    awards = n(),
    spend_total = sum(spend_usd, na.rm = TRUE),
    domestic_spend = sum(spend_usd[domestic_award], na.rm = TRUE),
    domestic_share = domestic_spend / spend_total,
    cross_border_share = 1 - domestic_share,
    .groups = "drop"
  ) %>%
  arrange(desc(spend_total))

dom_country

# A tibble: 55 × 6
   project_country awards spend_total domestic_spend domestic_share
   <chr>            <int>       <dbl>          <dbl>          <dbl>
 1 Multi-Countries   4020 3335305123.      10813456.        0.00324
 2 Nigeria            943  955778671.     693274310.        0.725  
 3 Tanzania           205  779355211.     245642744.        0.315  
 4 Senegal           1064  754658146.     593480873.        0.786  
 5 Tunisia            999  670418018.     425291169.        0.634  
 6 Côte D'Ivoire      869  665508222.     276313787.        0.415  
 7 Angola             321  632644505.     141755024.        0.224  
 8 Cameroon           234  584535004.     305016177.        0.522  
 9 Dem Rep Congo      599  564392905.     269384458.        0.477  
10 Kenya              674  536039734.     217900501.        0.407  
# ℹ 45 more rows
# ℹ 1 more variable: cross_border_share <dbl>
…
conc_country

# A tibble: 55 × 6
   project_country spend_total suppliers   hhi top1_share top5_share
   <chr>                 <dbl>     <int> <dbl>      <dbl>      <dbl>
 1 Mauritius         69478437.         8 0.978      0.989      1.000
 2 Egypt            105872155.        59 0.784      0.882      0.985
 3 Libya               335276.         4 0.483      0.641      1    
 4 Eswatini         205048671.        36 0.406      0.615      0.914
 5 Cape Verde        15331001.        29 0.316      0.511      0.852
 6 South Africa     181591049.        16 0.310      0.471      0.985
 7 South Sudan       29332988.        67 0.286      0.522      0.716
 8 Liberia           49147777.       112 0.267      0.506      0.670
 9 Seychelles         2218765.        12 0.266      0.479      0.823
10 Eritrea           70382113.        50 0.254      0.485      0.709
# ℹ 45 more rows
…
# Top 10 repeat winners within each country (by award count)
top_repeat_by_country <- repeat_cs %>%
  group_by(project_country) %>%
  slice_max(order_by = awards, n = 10, with_ties = FALSE) %>%
  ungroup()

# Top 10 repeat winners within each sector (by award count)
top_repeat_by_sector <- repeat_cs %>%
  group_by(sector) %>%
  slice_max(order_by = awards, n = 10, with_ties = FALSE) %>%
  ungroup()

top_repeat_by_country

# A tibble: 539 × 6
   project_country sector       bidder_name        awards spend_usd years_active
   <chr>           <chr>        <chr>               <int>     <dbl>        <int>
 1 Algeria         Multi-Sector Sociéte AVISYS Te…      2    16936.            1
 2 Algeria         Multi-Sector Ernst andoung Adv…      1   274122.            1
 3 Algeria         Multi-Sector CH Business Consu…      1   201670.            1
 4 Algeria         Multi-Sector Frankfurt School …      1   179201.            1
 5 Algeria         Multi-Sector Samy MOULEY             1    82429.            1
 6 Algeria         Multi-Sector Mohamed Skander         1    23367.            1
 7 Algeria         Multi-Sector Fredj Kchaou            1    16428.            1
 8 Algeria         Multi-Sector MEHIRECHE Moussa        1     4497.            1
 9 Algeria         Agriculture  Mansour EL Hadi         1      564.            1
10 Angola          Agriculture  AFRISEED – STEWAR…     12  2074376.            3
# ℹ 529 more rows

Show code

top_repeat_by_sector

# A tibble: 110 × 6
   project_country sector      bidder_name         awards spend_usd years_active
   <chr>           <chr>       <chr>                <int>     <dbl>        <int>
 1 Tunisia         Agriculture SOCOOPEC                24  2106465.            5
 2 Kenya           Agriculture M/S OCTAGON BUILDE…     22  5633283.            4
 3 Tunisia         Agriculture Société A2S             18   996920.            3
 4 Burkina Faso    Agriculture DIRECTION REGIONAL…     17  1080264.            2
 5 Nigeria         Agriculture AL-YUMA VENTURES &…     13  6967839.            2
 6 Senegal         Agriculture GROUPEMENT FOLAND/…     12 10879430.            3
 7 Angola          Agriculture AFRISEED – STEWARD…     12  2074376.            3
 8 Kenya           Agriculture Export Hydro Pump …     12   965516.            2
 9 Senegal         Agriculture KELIMANE ENTREPRISE     11 12560414.            4
10 Multi-Countries Agriculture Export Hydro Pump …     11   894609.            2
# ℹ 100 more rows
…
Show code

repeat_project <- df %>%
  group_by(project_def, loan_number, bidder_name) %>%
  summarise(
    awards = n(),
    spend_usd = sum(spend_usd, na.rm = TRUE),
    years_active = n_distinct(year),
    .groups = "drop"
  ) %>%
  arrange(desc(awards), desc(spend_usd))

repeat_project %>% slice_head(n = 100)

# A tibble: 100 × 6
   project_def  loan_number   bidder_name          awards spend_usd years_active
   <chr>        <chr>         <chr>                 <int>     <dbl>        <int>
 1 P-TN-E00-006 2000200000402 SOCOOPEC                 43  2272815.            5
 2 P-ET-DB0-018 2100155026168 Ethiopian Managemen…     17   517405.            1
 3 P-CI-KF0-001 2100155030620 AFAQ AFNOR               16    91808.            2
 4 P-KE-AAZ-009 5570155000751 M/S OCTAGON BUILDER…     15  1773212.            3
 5 P-TN-E00-006 2000200000402 STEG SOCIETE TUN DE…     14   270591.            3
 6 P-NG-AAB-003 2100150029994 AL-YUMA VENTURES & …     13  6967839.            2
 7 P-BF-AA0-037 5900150003504 DIRECTION REGIONALE…     13   690527.            1
 8 P-AO-AAZ-001 2000200002052 AFRISEED – STEWARDS…     12  2074376.            3
 9 P-CI-KF0-001 2100155030620 Bureau Veritas Côte…     12    85259.            2
10 P-NG-E00-007 2000130011585 CGC NIGERIA LTD          11 82809941.            2
# ℹ 90 more rows
…
Show code

proj_dom <- df %>%
  group_by(project_def, loan_number, bidder_name) %>%
  summarise(spend = sum(spend_usd, na.rm = TRUE), .groups = "drop") %>%
  group_by(project_def, loan_number) %>%
  mutate(share = spend / sum(spend)) %>%
  ungroup() %>%
  filter(share >= 0.80) %>%
  arrange(desc(share), desc(spend))

proj_dom %>% slice_head(n = 200)

# A tibble: 200 × 5
   project_def  loan_number   bidder_name                            spend share
   <chr>        <chr>         <chr>                                  <dbl> <dbl>
 1 P-Z1-FA0-164 2100155040366 Consortium of Siemens Energy Global … 1.67e8     1
 2 P-SZ-A00-005 2000200005202 SAKHALIVE JV                          1.26e8     1
 3 P-ZA-EA0-004 2000200005058 Kopano Ke Matla Joint Venture         8.55e7     1
 4 P-MU-FA0-004 2000300000452 CHINA MACHINERY ENGINEERING CORPORAT… 6.87e7     1
 5 P-MA-DD0-008 2000200005508 Groupement STFA SGTM Jan de Nul       6.17e7     1
 6 P-Z1-DB0-182 6550655001101 SINTRAM                               4.73e7     1
 7 P-UG-DB0-016 2100150042245 CHINA RAILWAY 18TH BUREAU (GROUP) Co… 3.80e7     1
 8 P-MW-AA0-024 2100150040548 Sinohydro Corporation Ltd             2.85e7     1
 9 P-Z1-DB0-039 5110155000758 China Railway International Group     2.55e7     1
10 P-CM-DB0-012 6550655001001 Sinohydro Corporation Ltd             2.54e7     1
# ℹ 190 more rows
…
supplier_footprint <- df %>%
  group_by(bidder_name) %>%
  summarise(
    awards = n(),
    spend_usd = sum(spend_usd, na.rm = TRUE),
    countries_served = n_distinct(project_country),
    sectors_served = n_distinct(sector),
    years_active = n_distinct(year),
    .groups = "drop"
  ) %>%
  arrange(desc(spend_usd))

supplier_footprint %>% slice_head(n = 50)

# A tibble: 50 × 6
   bidder_name     awards spend_usd countries_served sectors_served years_active
   <chr>            <int>     <dbl>            <int>          <int>        <int>
 1 SINOHYDRO CORP…     18    2.95e8                9              3            6
 2 Jiangxi Transp…      9    2.51e8                2              1            3
 3 CHINA RAILWAY …      7    1.97e8                3              2            3
 4 Consortium of …      1    1.67e8                1              1            1
 5 CHINA WU YI CO…      7    1.66e8                3              1            2
 6 China Henan In…      5    1.60e8                3              2            2
 7 Sinohydro Corp…     10    1.39e8                4              4            4
 8 M/S BEIJING CO…      3    1.36e8                1              1            2
 9 SAKHALIVE JV         1    1.26e8                1              1            1
10 CGC NIGERIA LTD     16    1.22e8                2              3            3
# ℹ 40 more rows
…
supplier_profile %>% count(footprint_type, sort = TRUE)

# A tibble: 4 × 2
  footprint_type                    n
  <chr>                         <int>
1 Single-country, single-sector 10730
2 Multi-country, multi-sector     447
3 Single-country, multi-sector    343
4 Multi-country, single-sector    162

Show code

supplier_profile %>% slice_head(n = 50)

# A tibble: 50 × 7
   bidder_name     awards spend_usd countries_served sectors_served years_active
   <chr>            <int>     <dbl>            <int>          <int>        <int>
 1 SINOHYDRO CORP…     18    2.95e8                9              3            6
 2 Jiangxi Transp…      9    2.51e8                2              1            3
 3 CHINA RAILWAY …      7    1.97e8                3              2            3
 4 Consortium of …      1    1.67e8                1              1            1
 5 CHINA WU YI CO…      7    1.66e8                3              1            2
 6 China Henan In…      5    1.60e8                3              2            2
 7 Sinohydro Corp…     10    1.39e8                4              4            4
 8 M/S BEIJING CO…      3    1.36e8                1              1            2
 9 SAKHALIVE JV         1    1.26e8                1              1            1
10 CGC NIGERIA LTD     16    1.22e8                2              3            3
# ℹ 40 more rows
# ℹ 1 more variable: footprint_type <chr>
…
frag_proj %>% slice_head(n = 100)

# A tibble: 100 × 8
   project_def  loan_number   awards spend_total median_usd p_below_50k
   <chr>        <chr>          <int>       <dbl>      <dbl>       <dbl>
 1 P-TN-E00-006 2000200000402    300   74435080.     92265.      0.323 
 2 P-NG-I00-001 2000200000701    277   99882332.    269261.      0.184 
 3 P-KE-AAZ-009 5570155000751    239   23378570.     64342.      0.406 
 4 P-SN-KE0-004 2100150039645    201   10523702.     26372.      0.786 
 5 P-NG-I00-001 2100150036593    198   66144166.    158351.      0.273 
 6 P-Z1-AAZ-011 2100150028345    189   26153405.     59069.      0.360 
 7 P-Z1-C00-081 2100150042746    165   12885811.     84656.      0.188 
 8 P-CI-KF0-001 2100155030620    148    3635895.     19365.      0.926 
 9 P-AO-AAZ-001 2000200002052    145   92507204.    161909.      0.131 
10 P-GH-EA0-008 2100150037195    132   30109956.     70742.      0.0530
# ℹ 90 more rows
# ℹ 2 more variables: p_below_100k <dbl>, p_below_250k <dbl>

“Fragmentation watchlist” (many awards + lots of micro-contracts)

Show code

frag_watchlist <- frag_proj %>%
  filter(awards >= 30 & (p_below_50k >= 0.50 | p_below_100k >= 0.70)) %>%
  arrange(desc(awards))

frag_watchlist

# A tibble: 62 × 8
   project_def  loan_number   awards spend_total median_usd p_below_50k
   <chr>        <chr>          <int>       <dbl>      <dbl>       <dbl>
 1 P-SN-KE0-004 2100150039645    201   10523702.     26372.       0.786
 2 P-Z1-C00-081 2100150042746    165   12885811.     84656.       0.188
 3 P-CI-KF0-001 2100155030620    148    3635895.     19365.       0.926
 4 P-ZM-IE0-002 2000130014280    119    6117101.     16118.       0.874
 5 P-TN-AA0-009 2000200004401    108    6549875.     30174.       0.602
 6 P-TN-IA0-004 2000200001953    102   53172843.     40570.       0.549
 7 P-TN-AAB-001 5050200000101    102    8970309.     25771.       0.657
 8 P-KE-AAZ-009 2000130014530     92   16687713.     70254.       0.163
 9 P-SN-I00-008 2100150042248     88    6365073.     38945.       0.693
10 P-TG-IZ0-002 2100155030917     82    3007980.     13402.       0.817
# ℹ 52 more rows
# ℹ 2 more variables: p_below_100k <dbl>, p_below_250k <dbl>
…
proj_intensity <- df %>%
  group_by(project_def) %>%
  summarise(
    awards = n(),
    spend_total = sum(spend_usd, na.rm = TRUE),
    avg_award = mean(spend_usd, na.rm = TRUE),
    suppliers = n_distinct(bidder_name),
    methods = n_distinct(proc_mode),
    .groups = "drop"
  ) %>%
  arrange(desc(awards))

proj_intensity %>% slice_head(n = 50)

# A tibble: 50 × 6
   project_def  awards spend_total avg_award suppliers methods
   <chr>         <int>       <dbl>     <dbl>     <int>   <int>
 1 P-NG-I00-001    486  167029965.   343683.       388       4
 2 P-KE-AAZ-009    331   40066283.   121046.       223       2
 3 P-TN-E00-006    325   75386678.   231959.       162       3
 4 P-SN-A00-013    242  119667274.   494493.        94       3
 5 P-SN-KE0-004    220   30220587.   137366.       128       5
 6 P-TN-AAB-001    205   32999045.   160971.        67       2
 7 P-Z1-AAZ-011    189   26153405.   138378.       100       2
 8 P-Z1-C00-081    165   12885811.    78096.       130       2
 9 P-ML-I00-006    159    4030081.    25346.        45       3
10 P-CI-KF0-001    148    3635895.    24567.        47       6
# ℹ 40 more rows

Looking at largest products by spend

Show code

proj_intensity %>%
  arrange(desc(spend_total)) %>%
  slice_head(n = 50)

# A tibble: 50 × 6
   project_def  awards spend_total avg_award suppliers methods
   <chr>         <int>       <dbl>     <dbl>     <int>   <int>
 1 P-AO-FA0-003     24  394551269. 16439636.        16       4
 2 P-CI-D00-010     44  281338022.  6394046.        38       5
 3 P-MA-FA0-008     69  256180886.  3712766.        23       4
 4 P-TZ-DA0-003      7  232367551. 33195364.         4       1
 5 P-NG-FA0-011     12  230151411. 19179284.         5       1
 6 P-KE-DB0-037     28  221544572.  7912306.        22       3
 7 P-UG-DB0-016     22  196136462.  8915294.        20       2
 8 P-Z1-DB0-204     43  184577299.  4292495.        32       2
 9 P-Z1-DB0-129     24  170377644.  7099068.        15       2
10 P-Z1-D00-047     15  167398782. 11159919.        14       5
# ℹ 40 more rows
…
Show code

proj_complexity <- proj_intensity %>%
  mutate(
    complexity_index =
      scale(awards)[,1] +
      scale(suppliers)[,1] +
      scale(methods)[,1]
  ) %>%
  arrange(desc(complexity_index))

proj_complexity %>% slice_head(n = 50)

# A tibble: 50 × 7
   project_def  awards spend_total avg_award suppliers methods complexity_index
   <chr>         <int>       <dbl>     <dbl>     <int>   <int>            <dbl>
 1 P-NG-I00-001    486  167029965.   343683.       388       4            33.6 
 2 P-KE-AAZ-009    331   40066283.   121046.       223       2            19.5 
 3 P-TN-E00-006    325   75386678.   231959.       162       3            17.2 
 4 P-SN-KE0-004    220   30220587.   137366.       128       5            13.7 
 5 P-SN-A00-013    242  119667274.   494493.        94       3            11.3 
 6 P-CI-AA0-020    136   60614225.   445693.       103       6            10.6 
 7 P-AO-AAZ-001    145   92507204.   637981.        89       6            10.3 
 8 P-Z1-C00-081    165   12885811.    78096.       130       2             9.84
 9 P-GH-EA0-008    132   30109956.   228106.       104       5             9.80
10 P-SN-KA0-015    108   10964917.   101527.        84       7             9.59
# ℹ 40 more rows
…
Show code

proj_micro <- df %>%
  group_by(project_def) %>%
  summarise(
    awards = n(),
    p_below_100k = mean(spend_usd < 100000, na.rm = TRUE),
    p_below_50k  = mean(spend_usd < 50000,  na.rm = TRUE),
    .groups = "drop"
  ) %>%
  arrange(desc(p_below_50k))

proj_micro %>% slice_head(n = 50)

# A tibble: 50 × 4
   project_def  awards p_below_100k p_below_50k
   <chr>         <int>        <dbl>       <dbl>
 1 P-AO-HZ0-001      6            1           1
 2 P-AO-KF0-005      1            1           1
 3 P-BF-AAD-006      9            1           1
 4 P-BF-DB0-017      2            1           1
 5 P-BF-E00-021      1            1           1
 6 P-BF-HAA-001      1            1           1
 7 P-BJ-IAE-004     18            1           1
 8 P-CF-IE0-004      2            1           1
 9 P-CI-AA0-024      1            1           1
10 P-CI-EB0-001      1            1           1
# ℹ 40 more rows
…
10F) Combine into one registry

Show code

red_flag_registry <- bind_rows(
  flag_hv_lowcomp,
  flag_project_dom,
  flag_frag,
  flag_high_conc_context
) %>%
  arrange(desc(spend_usd))

red_flag_registry %>% slice_head(n = 250)

# A tibble: 250 × 14
   flag       year project_country sector expense_category proc_mode bidder_name
   <chr>     <int> <chr>           <chr>  <chr>            <chr>     <chr>      
 1 Single s…    NA <NA>            <NA>   <NA>             <NA>      Consortium…
 2 Single s…    NA <NA>            <NA>   <NA>             <NA>      SAKHALIVE …
 3 Award oc…  2023 Eswatini        Agric… WORKS            ICB       SAKHALIVE …
 4 Single s…    NA <NA>            <NA>   <NA>             <NA>      M/S DONGFA…
 5 Single s…    NA <NA>            <NA>   <NA>             <NA>      JMC Projec…
 6 Single s…    NA <NA>            <NA>   <NA>             <NA>      Siemens Mo…
 7 Single s…    NA <NA>            <NA>   <NA>             <NA>      SINOHYDRO …
 8 Single s…    NA <NA>            <NA>   <NA>             <NA>      Kopano Ke …
 9 Award oc…  2022 South Africa    Water… WORKS            ICB       Kopano Ke …
10 Single s…    NA <NA>            <NA>   <NA>             <NA>      CRBC       
# ℹ 240 more rows
# ℹ 7 more variables: bidder_nationality <chr>, project_def <chr>,
#   loan_number <chr>, tender_num <chr>, contr_no <chr>, spend_usd <dbl>,
#   extra <chr>
…
